TIMESERIES _RFTN__Rftn_, 512 samples, 10 sps, 1969-12-31T23:59:50.000000, SLIST, FLOAT, 
-0.001438	-0.008758	-0.003357	-0.005569	0.008759	0.005374
0.005350	0.003483	-0.000912	-0.008578	0.006427	0.004671
-0.003580	0.007718	-0.000430	-0.003156	-0.009128	-0.002352
0.001059	-0.003956	0.009394	-0.004634	0.002302	0.008565
0.002836	0.008266	-0.005589	-0.004688	0.007039	0.000988
-0.004500	-0.005182	-0.008228	-0.001205	-0.003620	-0.005992
-0.003395	-0.007470	-0.009472	0.001157	-0.008198	-0.005937
-0.003480	0.005898	0.006723	0.000846	0.005017	-0.004874
0.001683	0.002101	-0.001551	-0.002100	0.002561	0.003122
-0.005746	0.006793	0.002510	0.008753	0.006496	-0.005298
0.007198	-0.003005	0.007066	0.004098	-0.009371	-0.001453
-0.001492	0.006420	0.005703	-0.005745	0.007400	-0.002739
0.009262	-0.007890	0.002508	-0.001293	-0.009038	-0.008351
0.004949	-0.009296	-0.007580	-0.008399	0.002968	-0.004732
-0.007637	-0.003153	-0.006159	0.007543	0.009978	0.000416
0.000127	0.024946	0.026904	0.065370	0.094317	0.140909
0.214868	0.278225	0.324535	0.377016	0.380566	0.372242
0.327361	0.269430	0.205619	0.142628	0.091008	0.049363
0.035250	0.022947	0.004550	-0.000563	-0.005684	-0.000112
-0.008659	0.005460	0.009572	-0.005687	-0.001172	0.014466
0.018486	0.019557	0.032193	0.022921	0.031287	0.039140
0.034893	0.040745	0.042359	0.034424	0.019658	0.020263
0.007236	0.016017	0.000242	-0.002548	-0.005124	-0.003655
-0.006232	-0.004902	0.012163	0.008599	0.014894	0.024196
0.037173	0.063353	0.072134	0.090851	0.103617	0.122825
0.114271	0.105009	0.089755	0.084303	0.063651	0.053677
0.025591	0.012929	0.015452	0.012847	-0.001927	0.004793
0.008443	0.002986	-0.002665	-0.004575	0.009816	-0.001394
0.004545	-0.007733	-0.002647	-0.005796	0.003264	-0.006482
0.007954	0.004728	-0.000105	-0.006533	-0.002887	-0.003923
0.008551	-0.007463	0.001471	-0.004465	0.013108	0.016024
0.013714	0.016614	0.041397	0.040526	0.049846	0.063500
0.054634	0.059301	0.051179	0.035723	0.035268	0.027351
0.025997	0.016391	0.006000	0.000338	0.005992	0.013398
0.003396	0.002079	0.017124	0.011179	0.005827	0.005343
0.015061	0.008960	-0.009212	-0.010170	-0.010312	-0.019083
-0.034501	-0.050328	-0.051694	-0.051550	-0.046642	-0.038031
-0.033605	-0.019534	-0.019269	-0.004668	-0.018499	-0.015811
-0.003417	-0.001418	-0.013395	-0.009407	-0.005263	-0.004660
-0.014921	-0.001396	0.001477	0.002420	0.002616	-0.000476
0.000490	0.003363	-0.001048	0.005494	-0.006854	0.000473
-0.010007	0.002087	0.004810	0.000561	-0.005291	0.003950
-0.003017	-0.002817	-0.008768	-0.007835	-0.008488	-0.002217
-0.005050	0.000743	-0.007030	-0.001849	-0.007301	-0.010487
-0.001305	0.001294	0.005220	0.003191	0.020840	0.026185
0.059656	0.076816	0.102844	0.126825	0.122379	0.144006
0.130863	0.114057	0.104022	0.090432	0.057074	0.043431
0.028788	0.028014	0.010733	0.005916	0.013103	-0.002513
0.000806	0.010993	-0.002668	0.001251	0.007341	0.006455
-0.010021	-0.010332	-0.001922	-0.010261	0.003874	-0.007347
-0.005229	-0.003510	-0.003217	0.000158	-0.007711	-0.006171
-0.001478	-0.013345	-0.010071	0.000116	0.001683	-0.003286
-0.002183	-0.006656	-0.012408	-0.016390	-0.020073	-0.024239
-0.018472	-0.040979	-0.062044	-0.058991	-0.073518	-0.095144
-0.094727	-0.099483	-0.080832	-0.076961	-0.060937	-0.052815
-0.040931	-0.037577	-0.014457	-0.021475	-0.008237	-0.003774
0.001641	-0.002441	0.004685	-0.002746	-0.007500	0.003171
-0.008477	-0.000784	-0.008807	-0.005564	-0.006197	-0.007109
-0.005138	-0.001801	-0.013500	-0.008014	0.000364	-0.000210
-0.008418	-0.007703	0.000719	0.001901	0.001654	-0.000706
0.006500	-0.003862	-0.004134	-0.003825	-0.010790	-0.002836
-0.010963	-0.009515	-0.000236	-0.009244	-0.020399	-0.023108
-0.020355	-0.016847	-0.021910	-0.021303	-0.020939	-0.011663
-0.014494	-0.008716	-0.002739	-0.011811	-0.004767	-0.007864
-0.007710	0.000075	-0.010149	-0.011109	-0.011086	-0.002949
-0.016274	-0.009725	-0.007465	-0.008921	-0.018325	-0.013293
-0.015818	-0.002793	-0.002231	-0.001847	-0.001042	-0.011232
0.004975	-0.005106	0.002089	0.003182	-0.008898	-0.006935
0.007484	-0.008626	0.003827	0.001225	0.002240	-0.012167
-0.001308	-0.013863	-0.000692	0.000798	-0.008490	0.004123
0.000078	-0.000391	0.004150	0.001012	-0.007291	-0.005672
-0.007630	-0.010847	-0.000354	-0.007407	-0.002822	-0.000550
-0.004876	-0.005608	0.005167	0.004316	-0.002849	0.005057
0.012048	0.007148	0.003305	0.009943	0.006785	0.018683
0.019850	0.014620	0.012288	0.011391	0.010887	0.010238
0.001814	-0.008315	-0.007499	0.003420	-0.007531	-0.007384
0.009482	-0.005731	-0.004957	-0.004555	0.000694	0.001528
0.006380	0.003637	0.005240	0.005316	-0.004436	0.001658
0.006472	0.003620	0.000504	0.010435	-0.001300	-0.000842
0.003808	-0.005248	-0.006696	0.006897	-0.003652	-0.000375
0.005378	0.003542	0.008170	-0.001596	0.009463	0.009675
0.008334	0.006608	0.007431	-0.003262	0.005480	-0.004590
-0.006407	-0.008311	0.002844	-0.011465	-0.012849	-0.006336
-0.003614	-0.005221	-0.006429	-0.009642	-0.016822	-0.017401
-0.007136	-0.004811	0.001050	-0.007625	-0.006667	-0.007243
-0.009361	-0.003465
