TIMESERIES _RFTN__Rftn_, 512 samples, 10 sps, 1969-12-31T23:59:50.000000, SLIST, FLOAT, 
0.044179	-0.016577	-0.094993	-0.067194	0.007121	0.008296
-0.028537	0.004317	0.056752	-0.053632	-0.075742	-0.024936
-0.064229	-0.068425	0.057811	-0.024332	0.055614	0.007013
0.073994	0.026613	-0.045627	-0.038284	-0.097407	-0.002199
0.067990	0.073143	0.058236	-0.020127	-0.073084	0.064321
-0.005746	-0.034034	-0.077882	-0.088431	-0.085372	-0.081502
0.093090	0.008728	-0.083093	0.033183	0.094740	-0.045713
-0.015851	-0.073116	-0.035778	0.050034	0.022153	0.035249
-0.008967	-0.005213	-0.042583	0.096564	0.087396	0.011486
-0.004308	0.065147	0.020303	0.076989	-0.081717	-0.017427
-0.013471	-0.081655	-0.073566	-0.031438	0.062342	0.083980
0.018120	0.046752	-0.066290	-0.077636	0.002998	-0.058417
-0.004045	0.089325	-0.050636	-0.003755	0.097847	0.091164
0.080415	-0.085196	0.056533	-0.079649	-0.030518	0.001618
0.013257	0.014445	-0.084209	0.050079	0.094360	0.096159
0.088805	-0.026017	-0.060474	0.083040	0.074564	-0.047033
0.067709	0.079957	0.244521	0.947115	1.432462	0.909899
0.191537	0.058572	0.027447	-0.006514	0.059847	0.070695
-0.096070	-0.014387	-0.030607	0.075094	-0.055403	-0.033218
-0.058877	0.063211	-0.040559	-0.081910	-0.053028	-0.043139
0.080072	0.096523	-0.024231	-0.087086	0.111500	0.144530
0.094252	0.034016	0.098623	0.076007	-0.084462	-0.003707
-0.048970	-0.020521	0.012322	0.069493	0.096081	0.056286
0.011175	-0.026729	-0.026285	-0.017920	0.063612	-0.027567
0.061504	0.096861	0.062449	0.031584	0.270834	0.314977
0.381284	0.204141	0.091413	-0.012272	-0.045146	0.076336
0.002004	-0.048531	-0.030552	0.054287	-0.087991	-0.065600
0.086796	0.079847	-0.094032	0.040608	0.043886	-0.080639
0.027779	-0.024612	0.068721	0.002701	0.070724	-0.023834
0.072187	-0.086236	0.057214	-0.022572	-0.090538	0.036106
0.094552	0.083395	0.082112	-0.068587	-0.024033	0.058943
-0.042125	0.039764	-0.021375	0.017910	0.065359	0.218450
0.100114	0.125344	0.082776	-0.074842	-0.068127	-0.073745
0.037973	-0.044149	-0.040290	0.012915	-0.017652	0.059690
0.006032	0.003495	-0.058812	0.049689	0.131964	0.031582
0.021011	-0.020786	0.082354	-0.040787	0.009210	0.035915
-0.145633	-0.154510	-0.175548	-0.011321	-0.038835	0.026612
-0.074293	0.048948	-0.005500	-0.004549	0.056221	0.063518
0.074952	-0.069433	0.050621	-0.012511	-0.088517	-0.111237
0.073905	-0.053310	-0.043886	-0.023610	-0.013395	0.080884
0.041189	0.057894	-0.079599	0.064535	0.035277	-0.067160
-0.036796	0.048244	-0.032476	-0.049756	-0.032440	0.069426
0.015336	-0.000867	-0.040938	-0.049762	-0.009445	-0.082924
-0.073918	0.005825	0.011280	-0.004449	-0.018158	-0.045754
0.023338	0.018969	-0.049535	-0.023321	-0.101678	-0.109979
0.000615	0.020597	0.108960	0.176416	0.314913	0.346600
0.264244	0.172088	0.077324	-0.041070	0.043325	0.069322
-0.031451	-0.055554	0.067130	-0.064836	-0.006724	0.068802
0.040000	-0.072284	0.095094	-0.065628	-0.026782	0.102243
-0.057568	-0.016324	-0.002786	-0.051161	-0.017406	-0.033848
0.016155	0.059273	0.093886	0.071173	0.051932	0.043725
0.028341	0.046921	-0.043654	0.056155	0.012612	0.039677
0.079178	0.019769	0.054012	0.024073	-0.015580	-0.016727
0.013949	0.047760	-0.058559	0.055750	-0.147514	-0.162198
-0.148110	-0.163662	-0.056671	-0.111681	-0.097075	-0.097634
-0.092589	0.023525	0.027675	-0.091399	-0.045213	-0.046795
-0.019127	0.080885	-0.061265	-0.035541	-0.074636	0.068314
-0.048994	-0.044932	-0.023143	-0.067604	0.051478	-0.071004
0.068433	-0.011106	-0.042253	-0.080051	-0.023351	-0.096802
-0.007549	-0.064001	0.012071	0.043008	0.078773	-0.001588
0.023820	0.052446	0.036302	-0.088392	-0.067976	-0.028812
-0.032498	0.088256	-0.017148	-0.011873	0.011646	0.018791
-0.041623	0.000784	-0.080151	0.066299	-0.078921	-0.063418
-0.097584	-0.043464	-0.084779	0.083384	-0.088990	-0.034321
0.017762	0.038504	-0.053262	-0.055243	0.038698	-0.099901
-0.027347	-0.022321	0.014652	-0.114536	-0.094345	-0.019633
-0.034368	-0.079648	0.037890	0.066097	-0.021455	-0.079819
-0.049652	-0.011982	0.010741	-0.037800	-0.007583	0.053338
0.008934	-0.050649	-0.006405	-0.099522	0.059795	-0.056800
0.051441	-0.042257	-0.076351	0.088349	0.023857	0.084899
-0.018274	0.080717	-0.032411	-0.038657	-0.053863	0.056772
0.034739	-0.029815	-0.049688	-0.000237	0.072735	-0.088452
-0.006316	0.097660	-0.037212	-0.091003	-0.032136	0.040578
0.043566	0.036985	0.014246	-0.064349	0.046715	-0.024541
-0.012619	0.079026	0.026506	0.010015	-0.000277	0.026434
-0.001062	-0.071545	0.086766	0.021125	0.083426	0.045151
0.063074	-0.015389	0.085621	0.015534	0.040080	0.052928
0.011851	0.096902	-0.052540	-0.089403	-0.024661	0.011917
-0.095057	0.098626	-0.060298	0.018682	0.027886	-0.025408
-0.073101	-0.096512	-0.029689	-0.053362	0.019574	-0.070203
0.087624	0.052708	-0.033168	-0.050279	0.043101	-0.076293
-0.015095	-0.052725	0.033026	0.025433	0.055082	0.046183
-0.094166	0.093634	-0.072008	-0.042766	0.018896	0.031052
-0.110314	-0.086040	-0.080803	0.026830	0.050162	0.084054
-0.002347	0.094771	0.031595	-0.084064	0.038593	0.026436
-0.055142	-0.043277
