TIMESERIES _RFTN__Rftn_, 512 samples, 10 sps, 1969-12-31T23:59:50.000000, SLIST, FLOAT, 
-0.004998	0.035440	0.018003	-0.010860	0.028768	0.020003
0.046877	-0.033221	0.041684	0.042946	-0.004586	-0.031913
-0.042529	0.021234	0.023500	0.035448	-0.038236	0.012182
0.034633	-0.011303	0.006793	-0.029087	-0.004265	-0.013953
-0.002556	-0.018551	-0.045036	-0.007072	-0.010622	0.001588
-0.012702	-0.012375	-0.001197	-0.009162	-0.007203	-0.004914
-0.040615	0.014013	-0.040346	0.040399	-0.002920	0.047040
-0.006216	0.011521	0.033723	0.014390	-0.002719	-0.010848
-0.031868	0.008177	0.007704	0.022908	0.003702	-0.047002
0.018281	-0.015675	-0.013015	0.030841	0.014857	-0.008867
-0.010982	-0.009144	-0.043799	0.008990	0.040373	0.006837
-0.006322	-0.035819	0.023217	0.018970	0.006471	0.018621
0.007892	0.045097	-0.004607	0.013874	0.048937	-0.002771
-0.035764	0.026624	0.008067	0.002769	0.030341	0.019898
0.006321	-0.010765	0.049728	0.069786	0.029019	0.074514
0.106450	0.058370	0.101266	0.083884	0.138442	0.158478
0.148152	0.217831	0.198764	0.179302	0.170140	0.179134
0.190940	0.204347	0.189272	0.139773	0.103253	0.148058
0.153466	0.122492	0.093576	0.060394	0.062284	0.022486
0.077283	0.009291	0.040990	-0.010761	0.062872	-0.008954
0.028052	-0.018861	0.054806	-0.004508	-0.001598	0.043857
0.026873	0.061698	-0.001654	0.068576	0.064034	0.059164
-0.019562	-0.026823	0.062955	0.057079	0.028909	0.065944
0.031554	-0.000680	0.026611	0.033902	-0.009590	-0.006358
0.081698	0.004382	0.016924	0.044472	0.027633	0.052865
0.089712	0.056101	0.041228	0.081956	0.061175	0.058455
0.065081	0.030954	0.020207	0.060246	-0.036016	0.025901
-0.024113	0.033940	0.024776	0.009923	0.011326	-0.001838
-0.032415	-0.022168	-0.035167	-0.027502	0.027528	0.000005
-0.010185	0.006580	0.046390	0.022469	0.006892	-0.040915
0.033302	-0.023993	0.005699	0.008023	0.061416	-0.024215
-0.019916	0.036287	-0.018593	-0.025641	0.002747	0.032520
-0.019222	0.064973	0.042967	-0.019083	-0.004472	0.040377
-0.003890	0.058858	0.041520	0.051674	-0.016972	0.000104
-0.041168	-0.035282	0.025656	-0.039375	-0.027131	-0.015973
0.018814	0.020328	-0.038953	0.002882	0.030489	-0.005271
-0.009889	-0.053125	0.024999	0.003912	-0.041082	0.018632
-0.053790	0.013109	0.013121	0.011674	-0.006979	0.021619
-0.036682	-0.026906	-0.026299	0.028603	-0.022782	-0.016844
-0.005430	0.018344	-0.022604	-0.006358	-0.022009	-0.022098
-0.017478	-0.047776	-0.042984	0.012376	0.029342	-0.018548
0.016270	-0.019223	0.045433	-0.003248	0.016660	0.018218
-0.035145	0.044565	-0.046203	0.010244	-0.006241	0.036465
0.018527	-0.011170	0.041910	0.056363	-0.027870	0.062157
0.062491	0.019213	0.068789	0.004754	0.034808	0.076097
0.041050	0.081868	0.072998	0.112684	0.073574	0.058426
0.065043	0.024874	0.080336	0.014219	0.016632	0.058436
0.057088	0.060846	0.052253	0.048255	0.001741	0.047015
-0.040357	0.017752	0.042575	-0.016299	-0.023075	-0.027435
-0.040061	-0.010742	0.009442	-0.012034	-0.045766	-0.000562
-0.025265	-0.036927	-0.004220	0.019868	-0.023360	0.002983
-0.039298	0.001785	-0.006481	0.035566	0.023383	-0.014993
-0.069926	-0.022185	-0.054010	-0.021803	-0.054836	-0.033005
-0.081542	-0.094881	-0.097216	-0.010621	-0.035228	-0.047447
-0.007005	-0.058722	-0.055570	-0.044604	-0.011132	-0.079916
0.016143	-0.057935	-0.023859	0.001924	-0.023793	-0.004057
0.020765	-0.016225	0.029563	-0.010470	0.051975	0.049798
-0.031042	0.026702	0.009148	0.028352	-0.000873	0.039959
-0.003411	0.042681	0.033310	0.040657	0.028529	-0.009895
-0.001775	-0.030856	-0.048156	-0.047290	-0.017289	-0.027366
-0.027067	-0.012407	0.028318	-0.018375	-0.016670	-0.022207
-0.039094	-0.011794	-0.054978	0.039194	0.011743	-0.019834
-0.014363	-0.041738	-0.002906	-0.021044	0.016392	0.035579
0.028062	-0.017567	-0.021971	-0.027946	0.042616	-0.029388
-0.005331	0.029104	0.008964	-0.041581	0.003733	0.038598
-0.028013	-0.048798	0.031173	0.033183	-0.045132	-0.032036
0.001410	0.043774	-0.012222	0.004784	-0.000712	0.031374
0.020058	0.003649	-0.013503	0.009742	0.002030	-0.002831
0.010844	0.037232	0.003578	-0.012289	-0.037174	0.023591
0.023337	-0.027468	0.042209	0.005376	0.028095	0.043094
-0.004590	0.030960	-0.022244	0.002809	-0.011730	-0.010200
-0.022924	-0.022242	-0.000567	0.023758	0.013949	0.038903
-0.012290	-0.031234	-0.022199	0.013547	-0.028837	0.018257
0.047325	-0.041236	0.025295	-0.018533	-0.036596	0.034224
0.036939	0.004619	-0.040801	-0.046278	0.027916	0.028364
-0.030227	-0.042817	0.001623	-0.029465	-0.046139	-0.015982
0.000469	-0.046262	-0.011284	-0.018616	-0.039476	0.032510
-0.027155	0.004514	0.006852	0.032985	0.038805	0.027756
0.049374	-0.031336	0.044938	-0.006224	0.047348	-0.033271
-0.004973	0.011666	-0.048135	-0.016228	0.041794	-0.029950
-0.023054	-0.010056	-0.009612	0.032567	-0.019505	-0.031892
-0.032156	0.023107	-0.005432	0.033902	-0.023701	-0.043875
-0.024423	0.012531	0.014073	0.035412	0.030362	-0.007764
-0.038884	0.000517	0.000293	-0.009692	0.035226	0.034205
0.041443	0.004360	0.009985	-0.047581	-0.036909	0.043660
0.016745	-0.023105
