TIMESERIES _RFTN__Rftn_, 512 samples, 10 sps, 1969-12-31T23:59:50.000000, SLIST, FLOAT, 
0.008386	0.011339	-0.003024	0.011804	0.008170	0.001609
0.007925	-0.011185	0.008801	-0.007030	0.001258	-0.007754
-0.002719	-0.006329	-0.005058	0.007304	0.009058	-0.011916
0.008393	0.002066	0.009360	-0.008650	0.011944	0.008114
0.007813	0.009114	0.004379	-0.008193	-0.011494	-0.011751
0.003131	0.010292	-0.009273	-0.003765	0.012172	0.008057
-0.010504	-0.010943	-0.004192	0.000913	0.011243	-0.011263
-0.005890	0.006728	-0.009691	0.004168	-0.009951	0.005101
0.006267	-0.007872	-0.000060	0.011162	-0.011711	-0.003730
-0.000895	-0.006262	0.003282	-0.011740	0.003179	0.010725
0.001863	-0.001132	-0.005937	-0.009174	-0.007294	0.010942
0.001302	-0.002425	-0.001587	0.000869	0.011342	-0.000625
-0.011692	-0.011000	-0.001568	-0.003182	0.005932	-0.007977
0.005045	0.011415	-0.009426	0.012207	0.012410	0.003147
-0.010081	-0.009963	0.009841	-0.000151	-0.002172	0.012266
-0.008487	-0.002152	0.008113	0.038569	0.049369	0.121395
0.206520	0.300877	0.398560	0.476642	0.501433	0.465621
0.382861	0.290959	0.201923	0.121391	0.045394	0.016106
0.009072	-0.008141	-0.001286	-0.007719	-0.008961	0.005872
-0.000292	-0.001394	-0.005733	0.008781	-0.011462	-0.000513
0.002927	-0.003764	-0.003391	0.000658	-0.007044	-0.012349
0.011524	-0.010451	0.006553	0.007740	-0.004838	0.006173
-0.005890	-0.000257	-0.006113	-0.004057	0.007165	-0.001491
-0.001676	-0.008466	0.002131	0.017106	0.010401	0.017292
0.047306	0.070260	0.107412	0.134578	0.172667	0.173029
0.162017	0.142561	0.119136	0.085450	0.047066	0.040078
0.024462	0.010039	0.019384	0.005418	0.005676	-0.001874
0.000390	0.008008	-0.000567	-0.001970	0.010165	0.005387
0.000281	-0.008182	-0.001615	0.003562	0.011519	-0.004440
-0.008834	-0.009386	0.008143	0.009490	0.001301	-0.008957
-0.011904	-0.003201	0.011814	0.012652	-0.003174	0.008436
-0.006230	-0.011317	0.001901	-0.007902	-0.001423	-0.004316
-0.002207	0.003632	-0.001906	0.014743	-0.007436	-0.001138
0.016524	0.013443	0.006536	-0.001390	0.002194	-0.005460
0.011940	0.004283	-0.011394	0.009840	0.010948	-0.002913
0.008305	-0.008518	0.003314	-0.008793	-0.010646	0.005260
0.010688	0.005894	-0.001441	-0.008464	0.011422	-0.003939
-0.005619	0.005704	-0.009644	-0.010787	0.000677	0.001237
0.004535	-0.007517	-0.011207	-0.008434	-0.000134	-0.000302
0.004973	-0.005751	0.003526	-0.011171	-0.005841	0.009190
-0.004208	0.000504	0.011308	-0.005963	-0.010771	0.006455
0.005994	-0.007664	-0.005777	-0.005459	0.007067	0.007533
-0.004041	-0.007977	-0.002206	-0.011165	0.001972	0.011520
0.000923	0.012349	0.009072	-0.001488	0.010827	0.009435
0.011775	-0.004730	-0.001670	-0.007323	0.004478	0.009237
0.021832	0.062684	0.089389	0.126741	0.161725	0.209637
0.226398	0.223349	0.186011	0.157279	0.120607	0.076523
0.063705	0.044954	0.031331	0.016225	0.016200	0.011639
0.014008	-0.000372	0.006612	0.016705	-0.000468	-0.004136
-0.002528	0.003054	0.003579	0.007625	0.002167	0.014180
0.006132	-0.000408	0.006318	0.007306	0.001725	-0.005774
0.004789	0.007967	0.012505	0.005949	0.005628	-0.000364
-0.007423	0.007226	0.010550	0.008724	0.005679	-0.014688
-0.009302	-0.030256	-0.054156	-0.064198	-0.088146	-0.117951
-0.153596	-0.171099	-0.154263	-0.153892	-0.121081	-0.098796
-0.073379	-0.066872	-0.041887	-0.022509	-0.012152	-0.014387
-0.025768	-0.005912	-0.015992	0.001182	-0.014647	0.002814
0.007113	-0.014522	-0.012976	0.004405	-0.002483	0.006646
0.005669	-0.000242	-0.009706	-0.013874	0.003424	-0.001869
-0.012437	0.010016	0.001532	-0.008971	0.006134	-0.008021
-0.000070	0.002971	0.000963	-0.008180	-0.007143	-0.009142
-0.006980	-0.003861	-0.010880	-0.002433	-0.024602	-0.016853
-0.019917	-0.028952	-0.039652	-0.022335	-0.023397	-0.037945
-0.014253	-0.016347	-0.008199	-0.004207	-0.014447	-0.015557
-0.001741	-0.012478	0.003486	-0.005678	0.008138	-0.006640
0.002383	0.000486	-0.003480	0.009022	0.006140	-0.002028
-0.012488	-0.002762	0.009721	0.008623	-0.004379	-0.000298
-0.009599	-0.000302	-0.010260	0.007099	-0.007033	0.003919
0.008499	0.009777	0.000483	-0.006357	-0.002350	-0.012609
-0.008450	0.008989	0.006512	0.007505	0.007279	0.002378
-0.001911	-0.004438	0.007975	-0.006864	-0.001638	0.009864
0.008565	0.005086	-0.004398	0.006105	-0.005011	0.004443
0.001339	-0.005932	0.000394	-0.004503	0.008238	-0.010603
-0.000171	-0.005669	0.005625	0.000490	-0.007455	0.009553
-0.004005	0.006667	-0.009935	0.006943	-0.006439	-0.013936
0.001060	-0.016018	-0.003414	0.002387	-0.014664	-0.015427
0.003098	-0.011997	-0.003174	-0.005985	0.006527	-0.004890
-0.003606	-0.012768	0.008917	0.000177	0.007099	0.005073
0.000500	-0.000555	-0.006903	0.008041	-0.010706	0.011783
-0.009049	-0.010625	-0.005688	0.003719	0.011881	0.004458
-0.000122	-0.009566	0.004831	-0.012507	0.003392	0.007483
-0.006402	-0.001215	-0.008751	-0.011457	0.001991	-0.000967
0.001215	-0.009099	0.000410	-0.002020	0.003293	-0.008520
-0.015243	-0.031904	-0.037289	-0.032361	-0.036589	-0.036686
-0.031801	-0.014931	-0.018500	-0.010276	-0.010224	-0.021022
0.000469	0.005824
