TIMESERIES _RFTN__Rftn_, 512 samples, 10 sps, 1969-12-31T23:59:50.000000, SLIST, FLOAT, 
0.023005	-0.017622	-0.009205	0.010515	-0.010279	0.016791
0.013092	-0.005449	0.021119	-0.016604	0.020776	-0.002488
-0.013490	-0.012023	0.014503	0.010321	-0.021780	0.015200
-0.024525	-0.012176	-0.014244	-0.007010	-0.008410	-0.017077
-0.021238	0.012301	-0.016243	0.000375	-0.020786	0.018014
-0.005222	0.001360	-0.002726	0.019668	-0.012103	0.024940
0.006453	-0.009250	-0.000237	-0.006017	0.009675	-0.012032
-0.012602	0.004717	-0.020991	-0.014587	-0.003173	-0.003429
-0.014408	-0.015424	-0.023957	0.000415	0.016704	-0.016344
-0.005072	0.005184	0.020236	0.011343	0.005202	0.015050
-0.000336	0.004558	-0.006802	-0.020305	0.005769	-0.016227
-0.007370	0.027769	0.028580	-0.001210	-0.008977	0.034301
0.013975	-0.004092	0.025045	0.043194	0.031882	0.002644
0.012478	0.017887	0.050448	0.064074	0.035512	0.041692
0.048980	0.048195	0.052769	0.054044	0.094391	0.082738
0.094272	0.086129	0.068657	0.091418	0.085456	0.117587
0.078542	0.105660	0.103732	0.110516	0.086738	0.081800
0.091636	0.091043	0.123330	0.085619	0.111338	0.091855
0.076156	0.103580	0.090655	0.096344	0.083509	0.066316
0.044906	0.037345	0.064302	0.067373	0.066892	0.051405
0.022095	0.030593	0.013865	0.031510	0.018485	0.020507
0.019670	0.052881	0.020078	0.049715	0.001922	0.046172
0.042600	0.023977	0.049822	0.027616	0.026111	0.042062
0.007665	0.032276	0.009677	0.018528	0.058923	0.052252
0.054969	0.020224	0.035470	0.045482	0.055813	0.034740
0.019233	0.019332	0.044403	0.048469	0.050280	0.047100
0.028121	0.014687	0.036338	0.018031	0.034581	0.039890
0.021850	0.043967	0.006973	0.041937	0.027500	-0.003697
0.042622	0.002927	0.018447	0.018344	0.003352	-0.012389
0.030190	-0.002383	0.020821	-0.017144	0.010335	0.003281
-0.017427	0.010162	0.014260	0.020798	-0.011547	-0.010542
0.020745	0.008332	0.011450	0.006979	-0.019582	-0.000541
0.026565	0.001302	-0.003716	0.019469	0.000343	0.012470
-0.019627	0.004201	-0.018036	0.019202	0.006092	0.023541
-0.013128	0.016452	0.005127	0.024977	0.022038	0.013241
-0.017970	0.007268	0.023887	0.013053	0.014839	-0.000875
-0.016021	0.014119	0.010263	0.018220	-0.020642	0.006034
-0.013234	0.019835	-0.010022	-0.010471	-0.012260	-0.018515
-0.015066	0.011862	0.025178	-0.013871	-0.010357	-0.006260
0.005964	-0.014853	0.014996	-0.010744	-0.014868	0.012729
-0.003767	0.019533	0.004919	0.013980	0.007755	0.000779
-0.009712	-0.014821	0.010596	-0.006145	0.026626	0.004319
-0.000417	0.038367	-0.009648	0.027242	0.038846	0.034698
0.005994	0.011809	0.045005	0.035552	0.053411	0.030256
0.023544	0.029087	0.053753	0.033870	0.032138	0.045729
0.022986	0.046188	0.031721	0.061324	0.040525	0.076584
0.040484	0.062292	0.043183	0.065400	0.038675	0.073768
0.037952	0.058235	0.069300	0.038486	0.053786	0.040956
0.018704	0.046753	0.011754	0.031972	0.009605	0.011247
0.039970	0.032390	0.000297	-0.004506	-0.007093	-0.003952
0.001157	0.020986	0.023584	-0.000149	0.022592	0.019710
-0.007391	-0.007961	0.004029	-0.014359	-0.025263	-0.028687
-0.016828	-0.022369	-0.036651	-0.023569	-0.029140	-0.025326
-0.034418	-0.018757	-0.042785	-0.057509	-0.034434	-0.053915
-0.035949	-0.022818	-0.043145	-0.050930	-0.036902	-0.051181
-0.015992	-0.052763	-0.045543	-0.029955	-0.011431	-0.058999
-0.049637	-0.009421	-0.055725	-0.009833	-0.007594	-0.014442
-0.029914	-0.027680	0.001300	-0.016008	-0.038848	-0.042056
-0.006692	0.000894	-0.024412	-0.006722	-0.021742	0.000649
-0.033197	-0.035731	0.010498	-0.009370	-0.030620	-0.018924
-0.032622	-0.014692	0.011797	0.000094	-0.028129	0.006661
-0.015838	-0.001400	-0.006649	0.011442	-0.013520	-0.027696
-0.006416	0.008162	0.001765	0.007679	-0.000532	-0.025136
0.001062	0.006586	-0.013232	0.001146	-0.012043	0.011530
-0.003704	-0.022381	-0.004432	-0.015744	-0.029336	0.014956
0.006028	0.006308	-0.020448	-0.010795	-0.014357	-0.004692
0.004589	-0.009554	0.004609	-0.018229	-0.008396	0.002820
-0.012197	-0.024018	-0.000099	0.014682	0.013405	-0.006725
-0.020061	0.001495	0.014027	0.018185	0.009463	0.018912
0.012550	0.015285	-0.001647	0.009978	-0.002276	0.023265
-0.016796	-0.024264	-0.000562	0.011579	0.001768	-0.004150
0.019604	0.002025	0.019448	-0.001766	-0.017174	-0.016412
0.002680	-0.016442	-0.002187	0.016184	-0.014719	-0.021859
-0.018063	0.021743	-0.001424	-0.000506	0.022014	-0.021452
0.019153	-0.014662	-0.025291	-0.015903	-0.022015	0.017010
-0.001193	-0.006124	-0.027032	-0.009981	-0.026618	-0.010285
-0.023287	-0.008203	-0.019100	0.014400	-0.012846	-0.008740
-0.026843	0.003717	0.002296	-0.011570	0.008054	0.021387
-0.009778	0.017571	0.005790	0.007150	-0.010064	-0.009459
0.018585	-0.023102	-0.018229	-0.008673	0.019867	0.019560
-0.001247	-0.015222	-0.026894	-0.012617	-0.010625	0.011212
0.005872	0.015073	-0.028861	0.004214	0.018627	-0.028649
-0.011084	0.003115	-0.021180	0.015826	-0.032481	-0.029455
-0.026259	0.000974	-0.000571	0.011644	-0.024342	-0.008562
-0.002975	-0.023437	-0.028388	-0.007161	-0.024220	-0.006737
-0.027215	-0.014358
