TIMESERIES _RFTN__Rftn_, 512 samples, 10 sps, 1969-12-31T23:59:50.000000, SLIST, FLOAT, 
0.003146	-0.006128	-0.011268	-0.013953	0.004876	0.001391
0.008386	0.002022	-0.003348	-0.012539	0.002846	-0.002756
0.001099	0.008745	0.014516	-0.010208	0.002043	0.004980
0.000137	-0.005724	-0.010623	-0.002876	-0.013976	-0.005911
-0.013216	-0.003968	0.007885	0.012219	0.013172	-0.008087
0.004097	0.010150	0.004164	0.011462	-0.012425	-0.007271
-0.001176	-0.010614	-0.006138	0.010858	-0.011447	-0.010449
0.010306	0.010681	-0.000441	0.001980	0.011240	0.010125
-0.013614	0.014016	-0.007351	-0.012450	0.003406	-0.013788
0.009634	0.008937	-0.013075	-0.010222	0.014998	-0.011406
-0.006195	0.007120	0.006749	-0.006295	-0.002337	-0.014144
0.004084	0.005585	-0.009938	0.010486	0.004975	0.010248
0.006746	0.012112	-0.005804	0.000422	-0.001858	-0.007112
-0.004694	0.000404	0.014598	0.019895	0.015690	0.013525
0.009168	0.036926	0.035413	0.044356	0.049583	0.065188
0.071458	0.085660	0.114446	0.112883	0.152112	0.167386
0.181467	0.195012	0.195354	0.202101	0.214612	0.204136
0.198609	0.180714	0.165299	0.162270	0.133637	0.116150
0.112196	0.087401	0.066635	0.060248	0.042017	0.035715
0.040643	0.011735	0.019117	0.012059	0.012361	0.014559
-0.002820	-0.004759	-0.012005	0.002810	0.011312	-0.012019
-0.000243	-0.013949	0.006112	0.001320	-0.010304	-0.004485
0.017607	0.001930	-0.002532	0.022942	0.023489	0.013337
0.010855	0.043552	0.022890	0.038568	0.036081	0.038654
0.073631	0.064213	0.075388	0.063221	0.084609	0.066693
0.082781	0.081936	0.067457	0.076492	0.067722	0.071350
0.040769	0.059853	0.047159	0.023131	0.013538	0.024919
0.026951	0.007377	0.007229	0.017205	0.003574	0.012121
0.015358	0.015211	0.003397	0.014639	0.006717	0.000553
0.010547	-0.009188	-0.004643	-0.010693	0.009532	-0.004322
-0.014116	-0.008505	0.007575	0.011376	0.008381	0.006538
-0.007585	0.010023	0.008719	-0.011605	0.002300	-0.003677
-0.011319	0.013616	0.006197	-0.008580	0.001312	0.010668
0.003391	0.001665	0.016973	-0.003330	0.016447	0.013984
0.015029	0.008606	-0.001804	-0.004941	0.015940	-0.006207
-0.000891	0.006735	0.004771	0.009882	0.007205	-0.007688
-0.006439	0.012215	0.008217	0.008598	-0.004141	0.009607
-0.010375	-0.009257	0.013349	-0.010452	0.014071	-0.008500
0.013468	0.002594	0.007663	-0.012286	-0.003873	-0.011994
-0.001086	-0.001653	0.003251	-0.013125	0.008924	0.011336
0.000776	-0.012015	-0.009724	-0.013411	-0.012957	0.001462
0.002015	-0.010797	0.012401	-0.003892	-0.002065	0.004400
0.009736	-0.004643	-0.009855	-0.005281	-0.001386	-0.000015
0.017520	0.007459	0.014725	0.014417	0.008991	0.023978
0.026647	0.028420	0.037840	0.029146	0.057172	0.048009
0.060758	0.059559	0.081499	0.076471	0.093344	0.110344
0.094249	0.092427	0.092540	0.096070	0.101324	0.086674
0.066026	0.078279	0.077287	0.060531	0.037800	0.052790
0.023542	0.016941	0.020379	0.026099	0.020063	0.001776
0.001051	0.013523	0.018630	-0.005817	0.004124	0.007188
-0.010301	-0.008462	0.013182	0.005296	-0.012684	0.002475
0.005799	-0.002505	-0.004729	-0.009321	0.008389	-0.013516
-0.005963	-0.004538	-0.005792	-0.022152	-0.033759	-0.047115
-0.045867	-0.055401	-0.052816	-0.070586	-0.059372	-0.085265
-0.062216	-0.086583	-0.065523	-0.079386	-0.086724	-0.061229
-0.058987	-0.069430	-0.069590	-0.045474	-0.037402	-0.044819
-0.025263	-0.024138	-0.019360	-0.034856	-0.010872	-0.017665
0.001195	-0.001647	-0.013350	0.002402	0.000759	-0.012854
0.000524	-0.007131	0.003615	0.002327	-0.010687	0.011445
-0.009393	0.010478	-0.001488	-0.000809	-0.008823	-0.014252
0.000736	-0.000344	-0.015321	0.004088	-0.012347	-0.004023
-0.002500	0.003409	-0.004031	-0.016130	-0.021118	-0.022662
-0.020566	-0.024930	-0.003365	-0.009108	-0.023710	-0.014800
-0.004026	-0.021622	-0.019198	-0.004831	-0.012079	-0.015604
0.004036	-0.009124	-0.010999	-0.005916	-0.015231	-0.001684
-0.002352	-0.001690	0.009591	0.002270	-0.015588	0.002376
-0.010015	-0.014045	-0.011872	0.009031	0.007415	0.008391
0.010801	-0.005327	-0.001325	-0.010123	0.000538	-0.003641
-0.001126	0.000001	0.001446	-0.003554	0.007107	-0.008635
0.007690	0.000406	0.009040	-0.001559	0.009712	-0.014527
0.009474	-0.004002	0.007217	-0.008479	-0.009069	0.011268
0.013615	-0.009005	-0.008586	-0.007011	-0.006301	0.013163
-0.004008	0.011887	0.000176	-0.010377	-0.001017	-0.001457
0.010554	0.001832	0.001919	0.005902	0.011140	-0.003263
0.000286	-0.014486	-0.005378	-0.003050	0.011199	0.004291
-0.011284	-0.006139	-0.009893	0.011020	0.010896	-0.011173
0.004168	0.011216	-0.007374	0.004372	-0.006984	-0.013452
0.002316	-0.017003	-0.007340	-0.001770	0.006642	-0.000393
0.001324	-0.014731	-0.015218	-0.007241	-0.008730	-0.012848
0.004999	-0.008878	-0.001086	-0.003160	0.007560	0.000853
-0.000316	-0.009836	-0.005566	0.004023	-0.009650	0.012904
-0.015348	-0.007862	0.009772	-0.003102	-0.002559	0.004437
0.007429	-0.013136	-0.004659	-0.001613	-0.014059	-0.001497
-0.017869	-0.008490	-0.021346	-0.019994	-0.018648	-0.020254
-0.009638	-0.028436	-0.000642	-0.028939	-0.003172	0.002761
0.003155	-0.004323
