TIMESERIES _RFTN__Rftn_, 512 samples, 10 sps, 1969-12-31T23:59:50.000000, SLIST, FLOAT, 
-0.011305	0.007235	0.005458	-0.006176	0.002369	0.005772
0.009213	0.006491	0.001582	0.012181	-0.009166	0.006336
0.000075	-0.013183	-0.006686	-0.010380	0.003332	0.000546
-0.009191	0.013071	-0.013245	-0.003817	0.001374	0.003936
-0.002609	-0.004614	-0.011648	0.004913	0.008992	-0.007351
-0.010159	0.000137	-0.006768	-0.002261	-0.005376	-0.011303
0.000098	-0.001282	0.008397	-0.006031	0.001375	0.002982
0.005532	-0.002722	0.004413	0.012295	-0.000914	-0.012379
-0.010485	0.013267	0.009730	0.001565	0.004923	0.004756
-0.011863	0.004742	-0.013283	-0.013473	0.007938	0.007467
0.002782	0.009575	-0.011732	-0.006942	-0.005168	-0.011679
0.001137	0.008268	0.009359	-0.009155	0.000317	-0.004553
-0.012755	0.007687	0.004773	-0.007322	0.009362	-0.000707
-0.008450	-0.005477	-0.007083	0.006175	0.012028	0.012111
-0.000816	-0.002812	-0.001610	-0.013050	0.001616	0.010045
0.000020	0.009121	0.012521	-0.011360	0.005366	-0.004033
0.050854	0.142676	0.420641	0.760591	0.905547	0.754274
0.412317	0.150562	0.041851	0.005267	-0.000745	-0.010291
0.005380	0.004203	-0.005707	0.006315	-0.012412	-0.010640
-0.002540	-0.000498	-0.003686	-0.010081	-0.000724	-0.011050
0.011132	-0.007731	-0.009308	-0.007453	0.005395	0.006179
0.010565	-0.006027	0.009095	0.002178	0.009600	-0.012608
-0.000478	0.002420	0.011704	-0.007710	0.007854	0.004166
-0.002423	0.008556	0.004695	0.007389	-0.009384	-0.001718
0.009788	0.021682	0.064194	0.157656	0.262015	0.312517
0.259562	0.142238	0.074097	0.035438	0.014914	0.001261
0.022354	0.014850	-0.002012	0.010410	0.012226	-0.008287
0.007978	-0.001392	-0.000339	0.007444	-0.005379	0.010623
0.011463	-0.007294	-0.004353	-0.007138	-0.004461	0.012606
0.011699	-0.006205	0.010193	0.002012	-0.001714	0.007551
0.006482	0.007472	-0.013092	-0.004789	-0.010985	-0.009142
-0.003505	-0.006681	0.006778	-0.008557	-0.010985	-0.012047
-0.001760	-0.002782	-0.012073	-0.010311	0.003911	0.002717
-0.005750	0.011091	-0.000043	0.010089	-0.007091	-0.010851
-0.008666	0.014042	0.011951	-0.007937	-0.012584	-0.001883
0.011197	0.013609	0.006041	0.013807	-0.001081	-0.001055
-0.010636	-0.011755	-0.005170	0.011585	0.008431	0.000522
0.009965	0.001746	0.006516	0.007460	0.008488	-0.006518
0.009043	-0.009058	-0.004125	-0.009517	0.010396	-0.000153
0.005276	-0.006824	0.006702	0.011850	-0.003315	-0.002886
-0.001937	-0.010933	0.012497	-0.011212	0.005416	-0.013515
-0.010091	0.002370	-0.010627	-0.003645	0.013539	0.009387
-0.013418	-0.006987	0.009552	0.000506	0.003508	0.010427
-0.010859	-0.010831	0.008166	-0.009610	-0.003728	0.013196
0.000892	-0.001242	-0.000837	0.011558	-0.001797	-0.008610
0.000525	0.011858	0.027695	0.079048	0.181645	0.291083
0.345928	0.292035	0.216778	0.140467	0.068312	0.058892
0.048060	0.028562	0.019473	0.007947	0.009821	0.005041
-0.001059	0.012827	0.001973	0.013120	0.015765	-0.002087
0.010731	-0.006884	0.008115	0.008977	-0.004258	-0.007324
0.012588	0.013012	-0.006027	-0.011798	0.014067	0.003441
0.002220	0.000636	0.010267	-0.002330	0.010828	0.010120
-0.012388	-0.004184	0.006719	-0.006133	-0.001119	-0.006372
0.007334	-0.002341	-0.003810	-0.031888	-0.090625	-0.151353
-0.205941	-0.228633	-0.220714	-0.164281	-0.105933	-0.083542
-0.043925	-0.041710	-0.037820	-0.020626	-0.013301	-0.019412
-0.003055	0.001446	-0.017551	0.005206	-0.013534	-0.014937
-0.009319	0.009431	0.002164	-0.016469	0.000800	-0.006777
-0.015613	0.009604	-0.000736	0.007293	0.006423	-0.005445
0.009215	0.009977	0.004083	-0.011986	-0.005247	-0.014354
0.003233	-0.008267	0.010673	-0.011857	0.009361	-0.008064
0.011769	0.011951	0.010147	-0.000183	-0.020414	-0.026134
-0.044260	-0.050271	-0.059877	-0.040964	-0.031073	-0.031362
-0.008200	-0.015886	-0.022452	-0.003648	-0.012615	-0.002642
-0.007497	-0.013442	-0.000580	-0.007358	0.005727	0.006765
-0.007032	-0.013937	-0.006331	0.005696	-0.003694	-0.014855
0.000742	0.010092	0.011680	0.001547	0.006640	-0.009404
-0.002144	-0.011310	0.001885	0.005657	-0.002302	-0.008675
-0.006605	0.006664	-0.002227	-0.011578	0.001271	-0.003716
-0.004180	0.008546	-0.000131	0.011302	0.000743	0.003982
-0.011549	-0.014497	-0.010752	0.005661	0.001738	-0.000156
-0.004359	0.005337	-0.014719	0.007089	0.009735	-0.000051
-0.008149	-0.002875	-0.013518	-0.011258	0.006932	-0.005163
0.012927	-0.003545	-0.002440	-0.005514	-0.007523	-0.004604
-0.007965	0.000152	-0.005257	-0.000616	-0.014266	-0.004149
-0.012422	0.002338	-0.005234	-0.004249	-0.020547	-0.019223
-0.000413	-0.013745	-0.012474	0.008132	0.002708	0.011263
-0.003878	-0.010856	-0.006619	0.011682	-0.008275	-0.006974
-0.011726	-0.006826	-0.011817	-0.010572	-0.002150	0.005821
0.007153	-0.003718	-0.002445	0.009117	-0.005203	-0.001162
0.008410	0.012035	0.011592	0.011566	0.002046	0.000074
0.008930	0.007985	-0.005263	0.012699	0.000620	-0.013239
-0.011185	-0.008732	-0.006398	0.004785	-0.012655	-0.017230
-0.027686	-0.016162	-0.038745	-0.039097	-0.035189	-0.027047
-0.028807	-0.019798	-0.027987	-0.020695	-0.004491	-0.003689
-0.007887	0.006647
