TIMESERIES _RFTN__Rftn_, 512 samples, 10 sps, 1969-12-31T23:59:50.000000, SLIST, FLOAT, 
-0.000044	-0.000061	-0.000053	-0.000048	-0.000045	-0.000042
-0.000040	-0.000038	-0.000037	-0.000035	-0.000034	-0.000033
-0.000032	-0.000031	-0.000031	-0.000030	-0.000029	-0.000029
-0.000028	-0.000026	-0.000023	-0.000020	-0.000015	-0.000010
-0.000006	-0.000002	-0.000000	0.000001	0.000001	0.000000
-0.000001	-0.000002	-0.000004	-0.000005	-0.000006	-0.000007
-0.000008	-0.000009	-0.000010	-0.000010	-0.000011	-0.000011
-0.000012	-0.000012	-0.000012	-0.000012	-0.000012	-0.000012
-0.000012	-0.000012	-0.000011	-0.000011	-0.000010	-0.000009
-0.000008	-0.000008	-0.000008	-0.000008	-0.000008	-0.000008
-0.000008	-0.000009	-0.000009	-0.000009	-0.000009	-0.000009
-0.000009	-0.000009	-0.000009	-0.000009	-0.000009	-0.000009
-0.000007	-0.000008	-0.000006	-0.000007	-0.000006	-0.000007
-0.000005	-0.000008	-0.000005	-0.000009	-0.000004	-0.000009
-0.000003	-0.000012	-0.000001	-0.000015	0.000005	-0.000023
0.000016	-0.000042	0.000049	-0.000100	0.000163	-0.000338
0.000761	0.008213	0.211003	0.907729	1.403302	0.898894
0.202615	0.003195	-0.002669	-0.002991	-0.002017	-0.001948
-0.001560	-0.001465	-0.001262	-0.001181	-0.001056	-0.000992
-0.000908	-0.000857	-0.000796	-0.000755	-0.000708	-0.000674
-0.000638	-0.000610	-0.000581	-0.000557	-0.000533	-0.000512
-0.000492	-0.000474	-0.000457	-0.000441	-0.000427	-0.000412
-0.000401	-0.000386	-0.000378	-0.000364	-0.000358	-0.000343
-0.000341	-0.000322	-0.000327	-0.000302	-0.000317	-0.000282
-0.000297	0.000248	0.018519	0.134687	0.343830	0.413182
0.267698	0.115105	0.050554	0.027771	0.017734	0.012349
0.009149	0.007045	0.005617	0.004574	0.003811	0.003218
0.002761	0.002389	0.002094	0.001845	0.001643	0.001468
0.001323	0.001196	0.001088	0.000992	0.000909	0.000835
0.000771	0.000713	0.000662	0.000615	0.000574	0.000535
0.000501	0.000469	0.000441	0.000415	0.000391	0.000369
0.000348	0.000329	0.000312	0.000296	0.000281	0.000267
0.000254	0.000245	0.000334	0.001395	0.004760	0.008615
0.009034	0.006349	0.003720	0.002229	0.001459	0.001035
0.000781	0.000617	0.000505	0.000426	0.000367	0.000322
0.000287	0.000258	0.000235	0.000215	0.000199	0.000185
0.000172	0.000162	0.000152	0.000144	0.000136	0.000129
0.000123	0.000117	0.000112	0.000107	0.000103	0.000098
0.000094	0.000090	0.000087	0.000084	0.000081	0.000078
0.000075	0.000072	0.000070	0.000068	0.000066	0.000063
0.000062	0.000060	0.000059	0.000065	0.000104	0.000183
0.000249	0.000246	0.000196	0.000145	0.000110	0.000087
0.000073	0.000063	0.000057	0.000051	0.000048	0.000044
0.000043	0.000040	0.000039	0.000037	0.000037	0.000034
0.000035	0.000032	0.000033	0.000030	0.000031	0.000031
0.000023	0.000069	0.001672	0.030310	0.159438	0.363774
0.443610	0.335413	0.192403	0.107017	0.064834	0.042895
0.030324	0.022552	0.017411	0.013859	0.011291	0.009386
0.007927	0.006792	0.005886	0.005155	0.004554	0.004057
0.003640	0.003286	0.002981	0.002719	0.002490	0.002291
0.002114	0.001960	0.001822	0.001699	0.001588	0.001489
0.001399	0.001318	0.001244	0.001177	0.001114	0.001058
0.001005	0.000958	0.000912	0.000873	0.000832	0.000800
0.000762	0.000736	0.000472	-0.005163	-0.044638	-0.148521
-0.262765	-0.289018	-0.228562	-0.153300	-0.099777	-0.066948
-0.046944	-0.034295	-0.025944	-0.020200	-0.016109	-0.013105
-0.010844	-0.009100	-0.007731	-0.006640	-0.005755	-0.005029
-0.004427	-0.003922	-0.003495	-0.003131	-0.002818	-0.002548
-0.002313	-0.002106	-0.001925	-0.001764	-0.001622	-0.001495
-0.001381	-0.001279	-0.001187	-0.001103	-0.001028	-0.000959
-0.000897	-0.000840	-0.000787	-0.000739	-0.000695	-0.000654
-0.000616	-0.000581	-0.000558	-0.000794	-0.003513	-0.014374
-0.034380	-0.051635	-0.054552	-0.045847	-0.034436	-0.025056
-0.018379	-0.013792	-0.010622	-0.008387	-0.006771	-0.005573
-0.004666	-0.003965	-0.003413	-0.002970	-0.002610	-0.002314
-0.002067	-0.001859	-0.001682	-0.001530	-0.001399	-0.001285
-0.001185	-0.001097	-0.001018	-0.000948	-0.000886	-0.000830
-0.000780	-0.000734	-0.000691	-0.000653	-0.000618	-0.000586
-0.000556	-0.000529	-0.000504	-0.000480	-0.000458	-0.000438
-0.000419	-0.000401	-0.000384	-0.000371	-0.000396	-0.000602
-0.001180	-0.002010	-0.002617	-0.002704	-0.002400	-0.001973
-0.001581	-0.001271	-0.001038	-0.000862	-0.000730	-0.000630
-0.000553	-0.000492	-0.000443	-0.000402	-0.000369	-0.000342
-0.000317	-0.000296	-0.000278	-0.000263	-0.000249	-0.000236
-0.000224	-0.000214	-0.000206	-0.000220	-0.000564	-0.002421
-0.006730	-0.011422	-0.013082	-0.011414	-0.008606	-0.006183
-0.004461	-0.003297	-0.002508	-0.001961	-0.001572	-0.001289
-0.001078	-0.000916	-0.000790	-0.000689	-0.000607	-0.000542
-0.000498	-0.000475	-0.000464	-0.000448	-0.000421	-0.000389
-0.000355	-0.000323	-0.000296	-0.000272	-0.000250	-0.000233
-0.000218	-0.000204	-0.000192	-0.000182	-0.000172	-0.000164
-0.000156	-0.000149	-0.000142	-0.000137	-0.000131	-0.000126
-0.000121	-0.000117	-0.000112	-0.000125	-0.000471	-0.003103
-0.011972	-0.027300	-0.041170	-0.045697	-0.041427	-0.033612
-0.026033	-0.019968	-0.015437	-0.012118	-0.009677	-0.007862
-0.006489	-0.005435
