TIMESERIES _RFTN__Rftn_, 512 samples, 10 sps, 1969-12-31T23:59:50.000000, SLIST, FLOAT, 
0.004607	-0.001466	-0.004542	0.006808	-0.005198	-0.001888
-0.005892	0.003803	-0.006291	0.005526	-0.004967	-0.004357
0.006338	0.004497	-0.002568	0.003104	0.004418	-0.002307
0.002258	-0.003528	-0.001381	-0.001398	-0.001747	-0.003537
-0.002698	-0.004819	0.005878	0.000066	0.002081	0.002159
0.000064	0.000279	-0.005244	-0.005436	0.000483	-0.000131
0.002473	0.005798	0.005659	-0.002354	0.002410	-0.004071
0.004313	0.003163	0.001825	-0.001412	-0.000374	-0.003566
-0.004799	-0.006739	0.003479	-0.000239	0.004707	0.001639
-0.005704	0.006375	0.000452	-0.003769	-0.000050	0.004446
0.000650	-0.005505	0.004911	0.001668	0.003359	0.005388
-0.003053	0.006039	0.002702	-0.003211	-0.004479	-0.001636
-0.000413	0.000883	0.003588	-0.005959	-0.004995	-0.003745
-0.000105	-0.005693	0.005435	-0.004991	0.002547	-0.003060
-0.005204	0.006936	0.005422	0.005875	0.006200	-0.003072
0.002962	0.003785	-0.002095	-0.002233	-0.004727	-0.005299
0.002781	0.012733	0.216164	0.910169	1.406184	0.897645
0.201675	0.007625	-0.005312	-0.003168	-0.000635	-0.007426
-0.007080	0.004427	0.004426	-0.004605	-0.003840	-0.001109
0.004734	-0.001095	-0.001973	-0.007222	-0.001181	0.004515
0.003028	-0.006623	-0.006409	-0.003502	-0.001392	0.004544
-0.006609	0.001934	0.003590	-0.003278	0.001812	-0.004901
-0.003153	-0.001060	0.000386	-0.004808	-0.006229	0.006646
0.003408	-0.000210	0.000631	0.006631	-0.002093	-0.003427
-0.001300	0.000056	0.017405	0.140604	0.347603	0.416976
0.274222	0.117603	0.048510	0.027671	0.014916	0.010048
0.015086	0.005869	0.000319	-0.001589	0.003654	0.004907
0.001574	0.002229	-0.000613	0.003752	-0.001292	-0.004145
0.007308	0.004924	-0.002293	-0.006012	0.006237	-0.001379
-0.003684	0.005471	0.001326	-0.000856	0.007499	0.001647
-0.003594	-0.003703	0.003166	0.000723	0.006281	0.000808
-0.005852	-0.001946	-0.006675	-0.004600	-0.001187	-0.001841
-0.002753	0.003973	0.006553	0.007152	0.000571	0.015147
0.015489	0.005279	0.006771	-0.000142	0.004179	0.000284
0.004550	-0.004306	0.002935	-0.001780	0.000036	0.001347
-0.002627	-0.002491	-0.006055	-0.001120	-0.001193	0.007065
0.001687	-0.002937	0.006475	-0.001818	-0.000129	0.004527
-0.002602	0.004938	0.005128	-0.005501	0.002874	-0.004273
0.004029	0.000524	0.006252	0.003788	-0.002125	-0.003620
0.003265	0.000200	-0.000579	0.001096	-0.002532	0.004823
0.005025	0.001050	0.001264	0.004458	0.001537	-0.002939
-0.000004	-0.001794	0.005696	0.001900	-0.003553	0.004150
0.005182	0.004017	-0.001764	0.005259	-0.005448	0.005834
-0.000166	0.006496	-0.006824	-0.005940	-0.003147	0.006469
0.006247	0.006208	0.003013	0.004363	0.003929	-0.004811
-0.006210	-0.004347	0.007926	0.035311	0.155411	0.359075
0.449276	0.335650	0.193866	0.107374	0.067256	0.042747
0.025469	0.017518	0.016417	0.018203	0.007574	0.014402
0.008370	0.001764	0.009254	0.009186	-0.001728	0.008836
0.005882	0.009474	0.008612	0.001626	0.005169	0.008443
-0.003283	0.006298	0.001915	-0.001138	-0.001330	0.001083
0.007741	-0.002351	0.000822	-0.001600	0.000427	0.001906
0.000370	0.006988	-0.001835	0.002857	0.004933	-0.002252
0.000990	0.003490	0.007233	-0.007847	-0.037853	-0.143427
-0.264324	-0.290505	-0.222632	-0.151945	-0.105348	-0.073405
-0.047406	-0.029626	-0.023360	-0.014443	-0.013691	-0.016901
-0.007085	-0.008209	-0.003523	-0.011219	-0.006204	-0.001620
-0.005164	0.002606	-0.004429	-0.007377	-0.002767	-0.008475
0.003587	-0.000457	0.000504	-0.006273	0.001218	-0.003921
-0.006026	-0.000079	-0.004752	0.000406	0.005802	0.005168
-0.000077	-0.000431	0.004052	0.001954	0.001782	-0.000165
-0.006394	0.002024	-0.000904	-0.005251	-0.007828	-0.015513
-0.029262	-0.052032	-0.059913	-0.040992	-0.037668	-0.029280
-0.021625	-0.009181	-0.014607	-0.001820	-0.004816	-0.004946
-0.008013	0.001700	0.003290	-0.009032	0.003036	0.001864
-0.007745	0.000020	-0.003505	-0.004421	0.001339	-0.004567
0.002154	0.000849	-0.002575	-0.002794	-0.002392	0.002982
-0.003476	-0.002418	-0.001218	-0.006252	-0.003942	-0.003308
0.000822	-0.002448	0.003133	0.004480	-0.001274	-0.005545
0.002044	0.000437	-0.001522	-0.007073	0.000969	-0.001551
0.001082	-0.001133	-0.001024	-0.008192	-0.002107	0.000355
-0.002649	0.002506	-0.005715	-0.002464	-0.001773	-0.005195
0.005337	-0.002943	-0.000534	0.001103	-0.001637	-0.006119
0.001833	0.003864	0.006406	0.003914	-0.003115	-0.005232
-0.005215	-0.005674	-0.005610	-0.003267	-0.005307	-0.002006
-0.006797	-0.005882	-0.018404	-0.011662	-0.004946	-0.004487
-0.000927	0.000163	-0.000826	0.002375	-0.006008	-0.007977
0.005478	-0.000269	-0.006772	0.005667	0.001670	-0.000529
-0.003059	-0.000522	0.001543	-0.007211	-0.004632	0.000095
0.004828	-0.007092	-0.005182	0.005309	0.006028	0.003220
-0.002330	-0.001825	0.003755	0.001487	-0.000422	-0.001714
0.005470	-0.007086	0.001436	-0.003756	-0.006910	0.001586
0.004375	-0.004283	-0.003821	-0.005183	-0.003547	0.001146
-0.008367	-0.021132	-0.044410	-0.046566	-0.046670	-0.035143
-0.020219	-0.020390	-0.020465	-0.015946	-0.014494	-0.001876
-0.008367	-0.006576
